C:\Users\USUARIO\Documents\servicios\ms_tvyradio\ms-usuarioondemand\src\main\java\com\tvradio\general\dto\ProgramaResp.java
C:\Users\USUARIO\Documents\servicios\ms_tvyradio\ms-usuarioondemand\src\main\java\com\tvradio\general\entities\LoginOnDemand.java
C:\Users\USUARIO\Documents\servicios\ms_tvyradio\ms-usuarioondemand\src\main\java\com\tvradio\usuarioondemand\repository\TimeTVRepository.java
C:\Users\USUARIO\Documents\servicios\ms_tvyradio\ms-usuarioondemand\src\main\java\com\tvradio\usuarioondemand\service\UsuarioDemandService.java
C:\Users\USUARIO\Documents\servicios\ms_tvyradio\ms-usuarioondemand\src\main\java\com\tvradio\usuarioondemand\ApplicationMain.java
C:\Users\USUARIO\Documents\servicios\ms_tvyradio\ms-usuarioondemand\src\main\java\com\tvradio\general\entities\Token.java
C:\Users\USUARIO\Documents\servicios\ms_tvyradio\ms-usuarioondemand\src\main\java\com\tvradio\general\entities\UsuarioPanel.java
C:\Users\USUARIO\Documents\servicios\ms_tvyradio\ms-usuarioondemand\src\main\java\com\tvradio\general\dto\ProgramasDTO.java
C:\Users\USUARIO\Documents\servicios\ms_tvyradio\ms-usuarioondemand\src\main\java\com\tvradio\general\dto\HoraryLoginsResp.java
C:\Users\USUARIO\Documents\servicios\ms_tvyradio\ms-usuarioondemand\src\main\java\com\tvradio\general\dto\TimeDto.java
C:\Users\USUARIO\Documents\servicios\ms_tvyradio\ms-usuarioondemand\src\main\java\com\tvradio\usuarioondemand\repository\UsuarioOndDemandRepository.java
C:\Users\USUARIO\Documents\servicios\ms_tvyradio\ms-usuarioondemand\src\main\java\com\tvradio\general\entities\Favoritos.java
C:\Users\USUARIO\Documents\servicios\ms_tvyradio\ms-usuarioondemand\src\main\java\com\tvradio\general\entities\Categoria.java
C:\Users\USUARIO\Documents\servicios\ms_tvyradio\ms-usuarioondemand\src\main\java\com\tvradio\general\entities\Radiovivoondemand.java
C:\Users\USUARIO\Documents\servicios\ms_tvyradio\ms-usuarioondemand\src\main\java\com\tvradio\usuarioondemand\repository\LoginRepository.java
C:\Users\USUARIO\Documents\servicios\ms_tvyradio\ms-usuarioondemand\src\main\java\com\tvradio\general\entities\TimeTV.java
C:\Users\USUARIO\Documents\servicios\ms_tvyradio\ms-usuarioondemand\src\main\java\com\tvradio\general\entities\UsuarioOnDemand.java
C:\Users\USUARIO\Documents\servicios\ms_tvyradio\ms-usuarioondemand\src\main\java\com\tvradio\general\dto\SeassonResp.java
C:\Users\USUARIO\Documents\servicios\ms_tvyradio\ms-usuarioondemand\src\main\java\com\tvradio\general\entities\TvVivoOndemand.java
C:\Users\USUARIO\Documents\servicios\ms_tvyradio\ms-usuarioondemand\src\main\java\com\tvradio\general\dto\ProgramasResp.java
C:\Users\USUARIO\Documents\servicios\ms_tvyradio\ms-usuarioondemand\src\main\java\com\tvradio\general\entities\Programa.java
C:\Users\USUARIO\Documents\servicios\ms_tvyradio\ms-usuarioondemand\src\main\java\com\tvradio\general\entities\Capitulos.java
C:\Users\USUARIO\Documents\servicios\ms_tvyradio\ms-usuarioondemand\src\main\java\com\tvradio\general\utilities\ErrorException.java
C:\Users\USUARIO\Documents\servicios\ms_tvyradio\ms-usuarioondemand\src\main\java\com\tvradio\general\utilities\Response.java
C:\Users\USUARIO\Documents\servicios\ms_tvyradio\ms-usuarioondemand\src\main\java\com\tvradio\usuarioondemand\controller\UsuarioOnDemandController.java
C:\Users\USUARIO\Documents\servicios\ms_tvyradio\ms-usuarioondemand\src\main\java\com\tvradio\general\dto\UsuarioPanelResp.java
C:\Users\USUARIO\Documents\servicios\ms_tvyradio\ms-usuarioondemand\src\main\java\com\tvradio\general\dto\ProgramAndSeason.java
C:\Users\USUARIO\Documents\servicios\ms_tvyradio\ms-usuarioondemand\src\main\java\com\tvradio\general\dto\IntervalDate.java
C:\Users\USUARIO\Documents\servicios\ms_tvyradio\ms-usuarioondemand\src\main\java\com\tvradio\usuarioondemand\repository\TokenRepository.java
