C:\Users\USUARIO\Documents\servicios\ms_tvyradio\ms-notificaciones\src\main\java\com\tvradio\general\utilities\Response.java
C:\Users\USUARIO\Documents\servicios\ms_tvyradio\ms-notificaciones\src\main\java\com\tvradio\notificaciones\repository\NotificacionesRepository.java
C:\Users\USUARIO\Documents\servicios\ms_tvyradio\ms-notificaciones\src\main\java\com\tvradio\general\dto\SeassonResp.java
C:\Users\USUARIO\Documents\servicios\ms_tvyradio\ms-notificaciones\src\main\java\com\tvradio\general\dto\UsuarioPanelResp.java
C:\Users\USUARIO\Documents\servicios\ms_tvyradio\ms-notificaciones\src\main\java\com\tvradio\general\entities\Notificaciones.java
C:\Users\USUARIO\Documents\servicios\ms_tvyradio\ms-notificaciones\src\main\java\com\tvradio\general\dto\HoraryLoginsResp.java
C:\Users\USUARIO\Documents\servicios\ms_tvyradio\ms-notificaciones\src\main\java\com\tvradio\notificaciones\ApplicationMain.java
C:\Users\USUARIO\Documents\servicios\ms_tvyradio\ms-notificaciones\src\main\java\com\tvradio\general\utilities\ErrorException.java
C:\Users\USUARIO\Documents\servicios\ms_tvyradio\ms-notificaciones\src\main\java\com\tvradio\general\dto\ProgramaResp.java
C:\Users\USUARIO\Documents\servicios\ms_tvyradio\ms-notificaciones\src\main\java\com\tvradio\notificaciones\service\NotificacionesService.java
C:\Users\USUARIO\Documents\servicios\ms_tvyradio\ms-notificaciones\src\main\java\com\tvradio\general\entities\UsuarioPanel.java
C:\Users\USUARIO\Documents\servicios\ms_tvyradio\ms-notificaciones\src\main\java\com\tvradio\notificaciones\controller\NotificacionesController.java
C:\Users\USUARIO\Documents\servicios\ms_tvyradio\ms-notificaciones\src\main\java\com\tvradio\general\dto\IntervalDate.java
