com\tvradio\favoritos\repository\FavoritosRepository.class
com\tvradio\general\entities\Capitulos.class
com\tvradio\general\entities\UsuarioApp.class
com\tvradio\favoritos\service\FavoritosService.class
com\tvradio\general\dto\HoraryLoginsResp.class
com\tvradio\general\entities\Imgradioondemand.class
com\tvradio\general\utilities\Response.class
com\tvradio\general\dto\ProgramaResp.class
com\tvradio\general\entities\UsuarioPanel.class
com\tvradio\general\dto\ProgramAndSeason.class
com\tvradio\general\entities\Noticias.class
com\tvradio\general\entities\Radiovivoondemand.class
com\tvradio\general\entities\TvEnVivoApp.class
com\tvradio\general\entities\HomeApp.class
com\tvradio\general\entities\Banner.class
com\tvradio\general\entities\Campanias.class
com\tvradio\favoritos\controller\FavoritosController.class
com\tvradio\general\dto\IntervalDate.class
com\tvradio\general\entities\Favoritos.class
com\tvradio\general\entities\RadioEnVivoApp.class
com\tvradio\general\entities\Login.class
com\tvradio\general\dto\ProgramasResp.class
com\tvradio\favoritos\ApplicationMain.class
com\tvradio\general\entities\LoginOnDemand.class
com\tvradio\general\entities\UsuarioOnDemand.class
com\tvradio\general\utilities\ErrorException.class
com\tvradio\general\entities\Programa.class
com\tvradio\general\entities\TvVivoOndemand.class
com\tvradio\general\dto\UsuarioPanelResp.class
com\tvradio\general\entities\Notificaciones.class
com\tvradio\general\dto\SeassonResp.class
com\tvradio\general\entities\Token.class
com\tvradio\general\dto\ProgramasDTO.class
com\tvradio\general\entities\Categoria.class
