C:\Users\USUARIO\Documents\servicios\ms_tvyradio\ms-favoritos\src\main\java\com\tvradio\general\entities\Banner.java
C:\Users\USUARIO\Documents\servicios\ms_tvyradio\ms-favoritos\src\main\java\com\tvradio\general\entities\TvEnVivoApp.java
C:\Users\USUARIO\Documents\servicios\ms_tvyradio\ms-favoritos\src\main\java\com\tvradio\favoritos\service\FavoritosService.java
C:\Users\USUARIO\Documents\servicios\ms_tvyradio\ms-favoritos\src\main\java\com\tvradio\general\utilities\ErrorException.java
C:\Users\USUARIO\Documents\servicios\ms_tvyradio\ms-favoritos\src\main\java\com\tvradio\general\entities\Favoritos.java
C:\Users\USUARIO\Documents\servicios\ms_tvyradio\ms-favoritos\src\main\java\com\tvradio\general\utilities\Response.java
C:\Users\USUARIO\Documents\servicios\ms_tvyradio\ms-favoritos\src\main\java\com\tvradio\general\dto\HoraryLoginsResp.java
C:\Users\USUARIO\Documents\servicios\ms_tvyradio\ms-favoritos\src\main\java\com\tvradio\general\entities\TvVivoOndemand.java
C:\Users\USUARIO\Documents\servicios\ms_tvyradio\ms-favoritos\src\main\java\com\tvradio\general\entities\HomeApp.java
C:\Users\USUARIO\Documents\servicios\ms_tvyradio\ms-favoritos\src\main\java\com\tvradio\general\entities\RadioEnVivoApp.java
C:\Users\USUARIO\Documents\servicios\ms_tvyradio\ms-favoritos\src\main\java\com\tvradio\general\dto\ProgramasResp.java
C:\Users\USUARIO\Documents\servicios\ms_tvyradio\ms-favoritos\src\main\java\com\tvradio\general\entities\UsuarioApp.java
C:\Users\USUARIO\Documents\servicios\ms_tvyradio\ms-favoritos\src\main\java\com\tvradio\favoritos\repository\FavoritosRepository.java
C:\Users\USUARIO\Documents\servicios\ms_tvyradio\ms-favoritos\src\main\java\com\tvradio\general\entities\UsuarioOnDemand.java
C:\Users\USUARIO\Documents\servicios\ms_tvyradio\ms-favoritos\src\main\java\com\tvradio\general\entities\Token.java
C:\Users\USUARIO\Documents\servicios\ms_tvyradio\ms-favoritos\src\main\java\com\tvradio\favoritos\ApplicationMain.java
C:\Users\USUARIO\Documents\servicios\ms_tvyradio\ms-favoritos\src\main\java\com\tvradio\favoritos\controller\FavoritosController.java
C:\Users\USUARIO\Documents\servicios\ms_tvyradio\ms-favoritos\src\main\java\com\tvradio\general\dto\ProgramasDTO.java
C:\Users\USUARIO\Documents\servicios\ms_tvyradio\ms-favoritos\src\main\java\com\tvradio\general\entities\Programa.java
C:\Users\USUARIO\Documents\servicios\ms_tvyradio\ms-favoritos\src\main\java\com\tvradio\general\entities\Campanias.java
C:\Users\USUARIO\Documents\servicios\ms_tvyradio\ms-favoritos\src\main\java\com\tvradio\general\entities\Categoria.java
C:\Users\USUARIO\Documents\servicios\ms_tvyradio\ms-favoritos\src\main\java\com\tvradio\general\entities\Notificaciones.java
C:\Users\USUARIO\Documents\servicios\ms_tvyradio\ms-favoritos\src\main\java\com\tvradio\general\entities\Radiovivoondemand.java
C:\Users\USUARIO\Documents\servicios\ms_tvyradio\ms-favoritos\src\main\java\com\tvradio\general\dto\UsuarioPanelResp.java
C:\Users\USUARIO\Documents\servicios\ms_tvyradio\ms-favoritos\src\main\java\com\tvradio\general\entities\UsuarioPanel.java
C:\Users\USUARIO\Documents\servicios\ms_tvyradio\ms-favoritos\src\main\java\com\tvradio\general\dto\IntervalDate.java
C:\Users\USUARIO\Documents\servicios\ms_tvyradio\ms-favoritos\src\main\java\com\tvradio\general\dto\ProgramaResp.java
C:\Users\USUARIO\Documents\servicios\ms_tvyradio\ms-favoritos\src\main\java\com\tvradio\general\entities\Login.java
C:\Users\USUARIO\Documents\servicios\ms_tvyradio\ms-favoritos\src\main\java\com\tvradio\general\entities\LoginOnDemand.java
C:\Users\USUARIO\Documents\servicios\ms_tvyradio\ms-favoritos\src\main\java\com\tvradio\general\dto\ProgramAndSeason.java
C:\Users\USUARIO\Documents\servicios\ms_tvyradio\ms-favoritos\src\main\java\com\tvradio\general\entities\Noticias.java
C:\Users\USUARIO\Documents\servicios\ms_tvyradio\ms-favoritos\src\main\java\com\tvradio\general\entities\Imgradioondemand.java
C:\Users\USUARIO\Documents\servicios\ms_tvyradio\ms-favoritos\src\main\java\com\tvradio\general\dto\SeassonResp.java
C:\Users\USUARIO\Documents\servicios\ms_tvyradio\ms-favoritos\src\main\java\com\tvradio\general\entities\Capitulos.java
