com\tvradio\general\dto\IntervalDate.class
com\tvradio\radiovivoondemand\controller\RadiovivoondemandController.class
com\tvradio\radiovivoondemand\service\RadiovivoondemandService.class
com\tvradio\general\dto\HoraryLoginsResp.class
com\tvradio\general\entities\Imgradioondemand.class
com\tvradio\general\utilities\Response.class
com\tvradio\radiovivoondemand\repository\RadiovivoondemandRepository.class
com\tvradio\general\utilities\ErrorException.class
com\tvradio\general\dto\ProgramaResp.class
com\tvradio\radiovivoondemand\repository\ImgbtnRepository.class
com\tvradio\general\dto\UsuarioPanelResp.class
com\tvradio\general\dto\SeassonResp.class
com\tvradio\general\entities\Radiovivoondemand.class
com\tvradio\radiovivoondemand\ApplicationMain.class
