C:\Users\USUARIO\Documents\servicios\ms_tvyradio\ms-categoria\src\main\java\com\tvradio\categoria\dto\LikeProgramResp.java
C:\Users\USUARIO\Documents\servicios\ms_tvyradio\ms-categoria\src\main\java\com\tvradio\categoria\ApplicationMain.java
C:\Users\USUARIO\Documents\servicios\ms_tvyradio\ms-categoria\src\main\java\com\tvradio\general\entities\Capitulos.java
C:\Users\USUARIO\Documents\servicios\ms_tvyradio\ms-categoria\src\main\java\com\tvradio\categoria\dto\LogViewsCategoryResp.java
C:\Users\USUARIO\Documents\servicios\ms_tvyradio\ms-categoria\src\main\java\com\tvradio\categoria\dto\ProgramAndSeason.java
C:\Users\USUARIO\Documents\servicios\ms_tvyradio\ms-categoria\src\main\java\com\tvradio\categoria\dto\HoraryLoginsResp.java
C:\Users\USUARIO\Documents\servicios\ms_tvyradio\ms-categoria\src\main\java\com\tvradio\categoria\dto\LogViewDto.java
C:\Users\USUARIO\Documents\servicios\ms_tvyradio\ms-categoria\src\main\java\com\tvradio\general\utilities\Response.java
C:\Users\USUARIO\Documents\servicios\ms_tvyradio\ms-categoria\src\main\java\com\tvradio\categoria\controller\CategoriaController.java
C:\Users\USUARIO\Documents\servicios\ms_tvyradio\ms-categoria\src\main\java\com\tvradio\categoria\dto\SeassonResp.java
C:\Users\USUARIO\Documents\servicios\ms_tvyradio\ms-categoria\src\main\java\com\tvradio\categoria\dto\UsuarioPanelResp.java
C:\Users\USUARIO\Documents\servicios\ms_tvyradio\ms-categoria\src\main\java\com\tvradio\categoria\repository\CategoriaRepository.java
C:\Users\USUARIO\Documents\servicios\ms_tvyradio\ms-categoria\src\main\java\com\tvradio\categoria\dto\IntervalDate.java
C:\Users\USUARIO\Documents\servicios\ms_tvyradio\ms-categoria\src\main\java\com\tvradio\general\utilities\ErrorException.java
C:\Users\USUARIO\Documents\servicios\ms_tvyradio\ms-categoria\src\main\java\com\tvradio\categoria\dto\ProgramasDTO.java
C:\Users\USUARIO\Documents\servicios\ms_tvyradio\ms-categoria\src\main\java\com\tvradio\general\entities\Categoria.java
C:\Users\USUARIO\Documents\servicios\ms_tvyradio\ms-categoria\src\main\java\com\tvradio\general\entities\LogViewCategory.java
C:\Users\USUARIO\Documents\servicios\ms_tvyradio\ms-categoria\src\main\java\com\tvradio\categoria\repository\ProgramasRepository.java
C:\Users\USUARIO\Documents\servicios\ms_tvyradio\ms-categoria\src\main\java\com\tvradio\categoria\repository\chapterRepository.java
C:\Users\USUARIO\Documents\servicios\ms_tvyradio\ms-categoria\src\main\java\com\tvradio\categoria\service\CategoriaService.java
C:\Users\USUARIO\Documents\servicios\ms_tvyradio\ms-categoria\src\main\java\com\tvradio\general\utilities\Comparador.java
C:\Users\USUARIO\Documents\servicios\ms_tvyradio\ms-categoria\src\main\java\com\tvradio\categoria\repository\LogViewsCategoryRepository.java
C:\Users\USUARIO\Documents\servicios\ms_tvyradio\ms-categoria\src\main\java\com\tvradio\categoria\dto\ProgramasResp.java
C:\Users\USUARIO\Documents\servicios\ms_tvyradio\ms-categoria\src\main\java\com\tvradio\general\entities\Programa.java
C:\Users\USUARIO\Documents\servicios\ms_tvyradio\ms-categoria\src\main\java\com\tvradio\general\entities\UsuarioOnDemand.java
